<svg width="375" height="577" xmlns="http://www.w3.org/2000/svg" fill="none">
    <path id="svg_1" fill="#D9D9D9" d="m336.121,150.156c24.201,-6.273 47.929,6.996 65.158,21.138c14.085,11.562 11.666,30.391 17.422,46.646c6.931,19.572 28.717,36.884 19.188,56.736c-10.085,21.01 -38.486,32.15 -64.097,36.823c-24.246,4.425 -47.972,-1.677 -67.696,-12.772c-18.818,-10.587 -33.648,-26.338 -36.665,-45.936c-2.861,-18.592 10.339,-35.776 21.455,-52.884c12.348,-19.003 21.239,-43.532 45.235,-49.751z" clip-rule="evenodd" fill-rule="evenodd"/>
    <path id="svg_2" fill="#D9D9D9" d="m55.1082,69.3118c24.2005,-6.2726 47.9288,6.9964 65.1578,21.1384c14.085,11.5618 11.665,30.3908 17.422,46.6458c6.931,19.572 28.717,36.885 19.188,56.737c-10.085,21.009 -38.486,32.149 -64.0972,36.823c-24.2455,4.424 -47.972,-1.678 -67.6957,-12.773c-18.81854,-10.587 -33.64841,-26.337 -36.6649,-45.935c-2.8617,-18.592 10.33863,-35.777 21.45458,-52.884c12.34772,-19.004 21.23902,-43.5324 45.23542,-49.7522z" clip-rule="evenodd" fill-rule="evenodd"/>
    <path id="svg_3" fill="#D9D9D9" d="m182.608,38.7911c32.836,-8.4169 64.386,6.8978 87.144,23.4881c18.605,13.563 14.718,36.4949 21.938,56.0308c8.694,23.523 37.491,43.809 23.983,68.218c-14.294,25.833 -52.955,40.296 -87.64,46.82c-32.835,6.175 -64.621,-0.441 -90.843,-13.251c-25.02,-12.223 -44.4903,-30.845 -47.9058,-54.529c-3.2402,-22.469 15.1278,-43.763 30.6828,-64.894c17.279,-23.4729 30.082,-53.5369 62.641,-61.8829z" clip-rule="evenodd" fill-rule="evenodd"/>
    <path id="svg_4" fill="#D9D9D9" d="m150.383,485.415c28.288,19.885 70.292,24.47 83.496,54.43c13.919,31.581 -0.864,64.199 -21.985,85.135c-19.384,19.214 -52.685,15.422 -82.542,18.476c-34.302,3.509 -68.9042,20.442 -101.5595,0.357c-34.40709,-21.163 -58.0368,-62.681 -56.6167,-97.646c1.2809,-31.536 42.4851,-37.161 62.9692,-58.754c17.2364,-18.17 17.6662,-55.343 45.7245,-55.825c28.0525,-0.482 45.3775,36.159 70.5135,53.827z" clip-rule="evenodd" fill-rule="evenodd"/>
    <path id="svg_5" fill="#D9D9D9" d="m412.949,421.275c-11.661,50.841 -4.063,109.036 -30.164,147.111c-27.511,40.134 -64.38,43.394 -91.417,30.251c-24.814,-12.062 -30.681,-58.309 -42.388,-95.296c-13.451,-42.493 -40.398,-76.069 -29.802,-132.77c11.165,-59.743 45.788,-119.488 81.126,-141.878c31.874,-20.194 49.44,29.872 76.949,41.724c23.148,9.974 60.406,-15.245 69.022,21.17c8.615,36.407 -22.964,84.513 -33.326,129.688z" clip-rule="evenodd" fill-rule="evenodd"/>
    <path id="svg_6" fill="#FFFAD8" d="m38.8907,154.613c6.6897,27.89 -6.4294,55.685 -17.738,82.044c-9.5346,22.223 12.0342,110.365 0.0676,131.379c-21.66846,38.051 -54.5102,37.075 -98.1363,40.833c-43.5,3.746 -48.507,-68.728 -74.295,-103.961c-13.724,-18.749 -25.145,-37.328 -41.327,-54.003c-31.154,-32.105 -105.039,-44.293 -96.711,-88.247c8.135,-42.937 85.404,-15.796 121.179,-40.894c29.739,-20.865 25.906,-78.0392 61.113,-86.9983c34.1772,-8.6974 64.0044,25.8345 91.2522,48.2246c23.77514,19.5367 47.4182,41.6987 54.5955,71.6227z" clip-rule="evenodd" fill-rule="evenodd"/>
    <path stroke="null" id="svg_7" fill="#FFFAD8" d="m153.10096,113.26459c34.66004,-10.01255 68.64265,11.16655 93.31757,33.73908c20.17217,18.4545 16.70631,48.5081 24.95133,74.45326c9.9264,31.23953 41.12773,58.8734 27.48055,90.55985c-14.44347,33.53318 -55.11864,51.31411 -91.79804,58.77444c-34.72448,7.0613 -68.70424,-2.67831 -96.95243,-20.38742c-26.95064,-16.89827 -48.18978,-42.03738 -52.51065,-73.31841c-4.09888,-29.67532 14.80724,-57.10488 30.72729,-84.40994c17.68448,-30.33293 30.41794,-69.4829 64.78438,-79.41085z" clip-rule="evenodd" fill-rule="evenodd"/>
    <path transform="rotate(120 198.635 498.91)" fill-opacity="0.5" stroke="null" id="svg_9" fill="#fffad8" d="m180.25247,406.30828c24.01237,-7.20725 47.55543,8.03794 64.65014,24.28613c13.97522,13.28396 11.57408,34.9172 17.28621,53.5931c6.87697,22.4869 28.49317,42.37836 19.03844,65.18697c-10.00639,24.13792 -38.18603,36.93703 -63.59741,42.30714c-24.05702,5.08288 -47.59809,-1.92791 -67.16836,-14.67531c-18.67132,-12.16375 -33.38574,-30.25942 -36.37922,-52.77621c-2.83969,-21.36095 10.25842,-41.10535 21.28778,-60.76013c12.25176,-21.8343 21.07346,-50.01531 44.88243,-57.16168z" clip-rule="evenodd" fill-rule="evenodd"/>
</svg>
